<svg xmlns="http://www.w3.org/2000/svg" height="12" viewBox="0 0 18.640972 12" width="18.641" version="1.1">
 <path stroke-width=".10356" d="m0.30046 11.678-0.30046-0.321v-4.8176c0-3.8376 0.026346-4.7972 0.12945-4.7183 0.071202 0.054432 1.9955 1.6126 4.2762 3.4625 2.2807 1.85 4.2004 3.3967 4.2661 3.4373 0.06988 0.04318 2.1391-1.386 4.9949-3.4498 2.6816-1.938 4.8978-3.5236 4.925-3.5236 0.02715 0 0.0494 2.1227 0.0494 4.7172 0 5.0345-0.01193 5.1611-0.51207 5.4287-0.131 0.071-3.118 0.107-8.8627 0.107h-8.6644zm4.3017-8.0405c-2.2691-1.8654-4.128-3.4383-4.1309-3.4952-0.00373-0.068111 3.0199-0.11267 8.8233-0.13007 9.6804-0.029015 9.2454-0.058593 8.4404 0.5724-0.514 0.40275-8.9239 6.4445-8.9707 6.4445-0.020008 0-1.8929-1.5262-4.162-3.3916z"/>
</svg>
