<svg xmlns="http://www.w3.org/2000/svg" height="22" width="22" viewbox="0 0 22 22" version="1.1">
 <path stroke-width=".73333" d="m9.0156 21.848c-5.2351-0.982-9.0156-5.511-9.0156-10.8 0-1.8389 0.33202-3.2813 1.1337-4.9248 1.4838-3.0415 4.2504-5.1838 7.675-5.943 0.9306-0.20631 2.9185-0.24251 3.9396-0.07172 4.6355 0.77528 8.1928 4.2638 9.094 8.918 0.19671 1.0158 0.2114 2.7192 0.03247 3.7624-0.8082 4.7114-4.4557 8.3416-9.1373 9.0948-1.0437 0.1679-2.7218 0.1517-3.7219-0.0359zm3.7633-2.1966c1.9576-0.40221 3.9906-1.6797 5.2051-3.2707 0.79889-1.0465 1.3974-2.3516 1.6706-3.6431 0.21118-0.99814 0.19642-2.6107-0.03318-3.6136-0.99953-4.367-5.1216-7.3832-9.4482-6.913-2.2044 0.23936-3.8451 1.0299-5.422 2.6127-2.9023 2.9129-3.4043 7.2153-1.2597 10.795 1.0603 1.7698 3.1715 3.36 5.1926 3.9111 1.2502 0.34087 2.8013 0.38676 4.0942 0.12113zm-5.1092-5.37-0.7254-0.751 1.2621-1.266 1.262-1.265-1.2628-1.2663-1.2629-1.2661 0.76736-0.76164 0.76736-0.76164 1.2615 1.261 1.2615 1.261 1.2621-1.2615 1.2621-1.2615 0.76413 0.76494 0.76406 0.76494-1.2602 1.2635-1.2602 1.2635 1.2602 1.2635 1.2602 1.2635-0.76406 0.76494-0.76413 0.76494-1.2621-1.2615-1.2621-1.2615-1.2623 1.2617c-0.69427 0.69392-1.2805 1.2562-1.3027 1.2494-0.022264-0.0062-0.36683-0.35015-0.76582-0.76318z"/>
</svg>
